﻿Country Code,Market
dz,Algeria
ar,Argentina
au,Australia
at,Austria
bd,Bangladesh
be,Belgium
bo,Bolivia
ba,Bosnia and Herzegovina
br,Brazil
bg,Bulgaria
kh,Cambodia
ca,Canada
cl,Chile
cn,China
co,Colombia
cr,Costa Rica
ci,Cote d Ivoire
hr,Croatia
cz,Czech Republic
dk,Denmark
do,Dominican Republic
ec,Ecuador
eg,Egypt
sv,El Salvador
ee,Estonia
fi,Finland
fr,France
de,Germany
gh,Ghana
gr,Greece
gt,Guatemala
hn,Honduras
hk,Hong Kong
hu,Hungary
in,India
id,Indonesia
ir,Iran
iq,Iraq
ie,Ireland
il,Israel
it,Italy
jp,Japan
jo,Jordan
kz,Kazakhstan
ke,Kenya
kr,"Korea, Republic of"
kw,Kuwait
lv,Latvia
lb,Lebanon
lt,Lithuania
mw,Malawi
my,Malaysia
mx,Mexico
ma,Morocco
mz,Mozambique
mm,Myanmar
nl,Netherlands
nz,New Zealand
ni,Nicaragua
ng,Nigeria
no,Norway
pk,Pakistan
pa,Panama
py,Paraguay
pe,Peru
ph,Philippines
pl,Poland
pt,Portugal
pr,Puerto Rico
qa,Qatar
ro,Romania
ru,Russian Federation
sa,Saudi Arabia
rs,Serbia
sg,Singapore
sk,Slovakia
si,Slovenia
za,South Africa
es,Spain
lk,Sri Lanka
se,Sweden
ch,Switzerland
sy,Syria
tw,Taiwan
th,Thailand
tn,Tunisia
tr,Turkey
ug,Uganda
ua,Ukraine
ae,United Arab Emirates
gb,United Kingdom
us,United States of America
uy,Uruguay
ve,Venezuela
vn,Vietnam
zm,Zambia
zw,Zimbabwe
